{
	"credit": "Made by Bob_Vador with Blockbench",
	"texture_size": [64, 64],
	"textures": {
		"0": "armuresséparatistes/Blaster E5",
		"particle": "armuresséparatistes/Blaster E5"
	},
	"elements": [
		{
			"from": [7, 0, 12],
			"to": [8.25, 5, 15],
			"faces": {
				"north": {"uv": [0, 6, 0.3125, 7.25], "texture": "#0"},
				"east": {"uv": [3, 3, 3.75, 4.25], "texture": "#0"},
				"south": {"uv": [0.5, 6, 0.8125, 7.25], "texture": "#0"},
				"west": {"uv": [3.75, 3, 4.5, 4.25], "texture": "#0"},
				"up": {"uv": [6.5625, 7.25, 6.25, 6.5], "texture": "#0"},
				"down": {"uv": [7.0625, 5, 6.75, 5.75], "texture": "#0"}
			}
		},
		{
			"from": [6.75, 0.25, 12.25],
			"to": [7, 4.75, 14.75],
			"faces": {
				"north": {"uv": [9.75, 10, 9.8125, 11.125], "texture": "#0"},
				"east": {"uv": [3, 4.25, 3.625, 5.375], "texture": "#0"},
				"south": {"uv": [10, 10, 10.0625, 11.125], "texture": "#0"},
				"west": {"uv": [3.75, 4.25, 4.375, 5.375], "texture": "#0"},
				"up": {"uv": [10.5625, 8.375, 10.5, 7.75], "texture": "#0"},
				"down": {"uv": [8.0625, 10.5, 8, 11.125], "texture": "#0"}
			}
		},
		{
			"from": [7, 0.5, 15],
			"to": [8.25, 2, 16],
			"faces": {
				"north": {"uv": [7.75, 2.5, 8.0625, 2.875], "texture": "#0"},
				"east": {"uv": [9.75, 5.75, 10, 6.125], "texture": "#0"},
				"south": {"uv": [7.75, 3, 8.0625, 3.375], "texture": "#0"},
				"west": {"uv": [9.5, 9.75, 9.75, 10.125], "texture": "#0"},
				"up": {"uv": [10.3125, 6, 10, 5.75], "texture": "#0"},
				"down": {"uv": [10.3125, 6, 10, 6.25], "texture": "#0"}
			}
		},
		{
			"from": [6.75, 0.75, 14.75],
			"to": [7, 1.75, 15.75],
			"faces": {
				"north": {"uv": [7, 10.75, 7.0625, 11], "texture": "#0"},
				"east": {"uv": [6.5, 6.25, 6.75, 6.5], "texture": "#0"},
				"south": {"uv": [10.75, 7, 10.8125, 7.25], "texture": "#0"},
				"west": {"uv": [10.25, 2.5, 10.5, 2.75], "texture": "#0"},
				"up": {"uv": [10.8125, 7.5, 10.75, 7.25], "texture": "#0"},
				"down": {"uv": [7.5625, 10.75, 7.5, 11], "texture": "#0"}
			}
		},
		{
			"from": [8.25, 0.25, 12.25],
			"to": [8.5, 4.75, 14.75],
			"faces": {
				"north": {"uv": [1.5, 10.25, 1.5625, 11.375], "texture": "#0"},
				"east": {"uv": [4.5, 3, 5.125, 4.125], "texture": "#0"},
				"south": {"uv": [1.75, 10.25, 1.8125, 11.375], "texture": "#0"},
				"west": {"uv": [4.5, 4.25, 5.125, 5.375], "texture": "#0"},
				"up": {"uv": [8.8125, 11.125, 8.75, 10.5], "texture": "#0"},
				"down": {"uv": [9.5625, 10.5, 9.5, 11.125], "texture": "#0"}
			}
		},
		{
			"from": [8.25, 0.75, 14.75],
			"to": [8.5, 1.75, 15.75],
			"faces": {
				"north": {"uv": [7.75, 10.75, 7.8125, 11], "texture": "#0"},
				"east": {"uv": [10.25, 2.75, 10.5, 3], "texture": "#0"},
				"south": {"uv": [10.75, 7.75, 10.8125, 8], "texture": "#0"},
				"west": {"uv": [10.25, 3, 10.5, 3.25], "texture": "#0"},
				"up": {"uv": [10.8125, 8.25, 10.75, 8], "texture": "#0"},
				"down": {"uv": [8.3125, 10.75, 8.25, 11], "texture": "#0"}
			}
		},
		{
			"from": [7, 2, 15],
			"to": [8.25, 3, 15.5],
			"faces": {
				"north": {"uv": [10, 6.75, 10.3125, 7], "texture": "#0"},
				"east": {"uv": [0.5, 10.75, 0.625, 11], "texture": "#0"},
				"south": {"uv": [10, 7, 10.3125, 7.25], "texture": "#0"},
				"west": {"uv": [10.75, 0.5, 10.875, 0.75], "texture": "#0"},
				"up": {"uv": [10.8125, 9.875, 10.5, 9.75], "texture": "#0"},
				"down": {"uv": [10.8125, 10, 10.5, 10.125], "texture": "#0"}
			}
		},
		{
			"from": [8.25, 1.75, 14.75],
			"to": [8.5, 2.75, 15.25],
			"faces": {
				"north": {"uv": [10.75, 8.25, 10.8125, 8.5], "texture": "#0"},
				"east": {"uv": [0.75, 10.75, 0.875, 11], "texture": "#0"},
				"south": {"uv": [10.75, 8.5, 10.8125, 8.75], "texture": "#0"},
				"west": {"uv": [10.75, 0.75, 10.875, 1], "texture": "#0"},
				"up": {"uv": [11.8125, 1.375, 11.75, 1.25], "texture": "#0"},
				"down": {"uv": [1.5625, 11.75, 1.5, 11.875], "texture": "#0"}
			}
		},
		{
			"from": [6.75, 1.75, 14.75],
			"to": [7, 2.75, 15.25],
			"faces": {
				"north": {"uv": [10.75, 8.75, 10.8125, 9], "texture": "#0"},
				"east": {"uv": [10.75, 1.5, 10.875, 1.75], "texture": "#0"},
				"south": {"uv": [9, 10.75, 9.0625, 11], "texture": "#0"},
				"west": {"uv": [10.75, 1.75, 10.875, 2], "texture": "#0"},
				"up": {"uv": [11.8125, 1.625, 11.75, 1.5], "texture": "#0"},
				"down": {"uv": [1.8125, 11.75, 1.75, 11.875], "texture": "#0"}
			}
		},
		{
			"from": [7, 5, 8.5],
			"to": [8, 5.5, 17],
			"faces": {
				"north": {"uv": [2.5, 10.75, 2.75, 10.875], "texture": "#0"},
				"east": {"uv": [6.5, 1.5, 8.625, 1.625], "texture": "#0"},
				"south": {"uv": [10.75, 2.5, 11, 2.625], "texture": "#0"},
				"west": {"uv": [6.5, 1.75, 8.625, 1.875], "texture": "#0"},
				"up": {"uv": [5, 7.625, 4.75, 5.5], "texture": "#0"},
				"down": {"uv": [5.25, 5.5, 5, 7.625], "texture": "#0"}
			}
		},
		{
			"from": [7, 5.5, 11.5],
			"to": [8, 6, 17],
			"faces": {
				"north": {"uv": [4.25, 10.75, 4.5, 10.875], "texture": "#0"},
				"east": {"uv": [7.25, 5, 8.625, 5.125], "texture": "#0"},
				"south": {"uv": [10.75, 4.25, 11, 4.375], "texture": "#0"},
				"west": {"uv": [7.25, 5.25, 8.625, 5.375], "texture": "#0"},
				"up": {"uv": [1.25, 7.875, 1, 6.5], "texture": "#0"},
				"down": {"uv": [1.5, 6.5, 1.25, 7.875], "texture": "#0"}
			}
		},
		{
			"from": [7, 0, 9],
			"to": [8, 0.5, 12],
			"faces": {
				"north": {"uv": [2.75, 10.75, 3, 10.875], "texture": "#0"},
				"east": {"uv": [9.75, 9.75, 10.5, 9.875], "texture": "#0"},
				"south": {"uv": [10.75, 2.75, 11, 2.875], "texture": "#0"},
				"west": {"uv": [1.5, 10, 2.25, 10.125], "texture": "#0"},
				"up": {"uv": [5.75, 7.5, 5.5, 6.75], "texture": "#0"},
				"down": {"uv": [6, 6.75, 5.75, 7.5], "texture": "#0"}
			}
		},
		{
			"from": [7, 0.5, 11],
			"to": [8, 1, 12],
			"faces": {
				"north": {"uv": [3, 10.75, 3.25, 10.875], "texture": "#0"},
				"east": {"uv": [10.75, 3, 11, 3.125], "texture": "#0"},
				"south": {"uv": [3.25, 10.75, 3.5, 10.875], "texture": "#0"},
				"west": {"uv": [10.75, 3.25, 11, 3.375], "texture": "#0"},
				"up": {"uv": [10.5, 3.5, 10.25, 3.25], "texture": "#0"},
				"down": {"uv": [10.5, 4, 10.25, 4.25], "texture": "#0"}
			}
		},
		{
			"from": [7, 2.5, 11.75],
			"to": [8, 5, 12],
			"faces": {
				"north": {"uv": [0, 7.25, 0.25, 7.875], "texture": "#0"},
				"east": {"uv": [10.25, 10.5, 10.3125, 11.125], "texture": "#0"},
				"south": {"uv": [0.25, 7.25, 0.5, 7.875], "texture": "#0"},
				"west": {"uv": [10.5, 10.25, 10.5625, 10.875], "texture": "#0"},
				"up": {"uv": [11, 10.8125, 10.75, 10.75], "texture": "#0"},
				"down": {"uv": [11.25, 0, 11, 0.0625], "texture": "#0"}
			}
		},
		{
			"from": [7, 4, 11.5],
			"to": [8, 5, 11.75],
			"faces": {
				"north": {"uv": [10.25, 4.25, 10.5, 4.5], "texture": "#0"},
				"east": {"uv": [11, 0.25, 11.0625, 0.5], "texture": "#0"},
				"south": {"uv": [10.25, 7.25, 10.5, 7.5], "texture": "#0"},
				"west": {"uv": [0.5, 11, 0.5625, 11.25], "texture": "#0"},
				"up": {"uv": [11.25, 0.5625, 11, 0.5], "texture": "#0"},
				"down": {"uv": [1, 11, 0.75, 11.0625], "texture": "#0"}
			}
		},
		{
			"from": [6.5, 4.5, 8.75],
			"to": [7, 5.5, 9.75],
			"faces": {
				"north": {"uv": [3.5, 10.75, 3.625, 11], "texture": "#0"},
				"east": {"uv": [8, 10.25, 8.25, 10.5], "texture": "#0"},
				"south": {"uv": [3.75, 10.75, 3.875, 11], "texture": "#0"},
				"west": {"uv": [8.75, 10.25, 9, 10.5], "texture": "#0"},
				"up": {"uv": [4.125, 11, 4, 10.75], "texture": "#0"},
				"down": {"uv": [10.875, 4, 10.75, 4.25], "texture": "#0"}
			}
		},
		{
			"from": [8, 4.5, 8.75],
			"to": [8.5, 5.5, 9.75],
			"faces": {
				"north": {"uv": [10.75, 4.75, 10.875, 5], "texture": "#0"},
				"east": {"uv": [6.25, 10.5, 6.5, 10.75], "texture": "#0"},
				"south": {"uv": [10.75, 5, 10.875, 5.25], "texture": "#0"},
				"west": {"uv": [6.5, 10.5, 6.75, 10.75], "texture": "#0"},
				"up": {"uv": [10.875, 5.5, 10.75, 5.25], "texture": "#0"},
				"down": {"uv": [6.375, 10.75, 6.25, 11], "texture": "#0"}
			}
		},
		{
			"from": [7, 0.5, 9],
			"to": [8, 5, 9.25],
			"faces": {
				"north": {"uv": [6.5, 5, 6.75, 6.125], "texture": "#0"},
				"east": {"uv": [2, 10.25, 2.0625, 11.375], "texture": "#0"},
				"south": {"uv": [6, 6.5, 6.25, 7.625], "texture": "#0"},
				"west": {"uv": [6, 10.25, 6.0625, 11.375], "texture": "#0"},
				"up": {"uv": [11, 10.3125, 10.75, 10.25], "texture": "#0"},
				"down": {"uv": [11, 10.5, 10.75, 10.5625], "texture": "#0"}
			}
		},
		{
			"from": [7, 7, -2],
			"to": [8, 8, 20],
			"faces": {
				"north": {"uv": [9.5, 10.25, 9.75, 10.5], "texture": "#0"},
				"east": {"uv": [0, 0, 5.5, 0.25], "texture": "#0"},
				"south": {"uv": [10.25, 10, 10.5, 10.25], "texture": "#0"},
				"west": {"uv": [0, 0.25, 5.5, 0.5], "texture": "#0"},
				"up": {"uv": [0.25, 6, 0, 0.5], "texture": "#0"},
				"down": {"uv": [0.5, 0.5, 0.25, 6], "texture": "#0"}
			}
		},
		{
			"from": [6, 7, 0],
			"to": [7, 8, 20],
			"faces": {
				"north": {"uv": [10.5, 0.5, 10.75, 0.75], "texture": "#0"},
				"east": {"uv": [1.5, 1.5, 6.5, 1.75], "texture": "#0"},
				"south": {"uv": [0.75, 10.5, 1, 10.75], "texture": "#0"},
				"west": {"uv": [1.5, 1.75, 6.5, 2], "texture": "#0"},
				"up": {"uv": [1.75, 7, 1.5, 2], "texture": "#0"},
				"down": {"uv": [2, 2, 1.75, 7], "texture": "#0"}
			}
		},
		{
			"from": [5, 7, 14],
			"to": [6, 8, 16],
			"faces": {
				"north": {"uv": [10.5, 4.5, 10.75, 4.75], "texture": "#0"},
				"east": {"uv": [7.5, 3.5, 8, 3.75], "texture": "#0"},
				"south": {"uv": [10.5, 4.75, 10.75, 5], "texture": "#0"},
				"west": {"uv": [7.5, 3.75, 8, 4], "texture": "#0"},
				"up": {"uv": [5.75, 8, 5.5, 7.5], "texture": "#0"},
				"down": {"uv": [6, 7.5, 5.75, 8], "texture": "#0"}
			}
		},
		{
			"from": [5.5, 7, 11],
			"to": [6.5, 8.5, 13],
			"faces": {
				"north": {"uv": [2.5, 10, 2.75, 10.375], "texture": "#0"},
				"east": {"uv": [7, 2, 7.5, 2.375], "texture": "#0"},
				"south": {"uv": [10, 2.5, 10.25, 2.875], "texture": "#0"},
				"west": {"uv": [7, 3, 7.5, 3.375], "texture": "#0"},
				"up": {"uv": [1, 8.25, 0.75, 7.75], "texture": "#0"},
				"down": {"uv": [8, 1, 7.75, 1.5], "texture": "#0"}
			}
		},
		{
			"from": [8.5, 7, 11],
			"to": [9.5, 8.5, 13],
			"faces": {
				"north": {"uv": [2.75, 10, 3, 10.375], "texture": "#0"},
				"east": {"uv": [7, 3.5, 7.5, 3.875], "texture": "#0"},
				"south": {"uv": [10, 3, 10.25, 3.375], "texture": "#0"},
				"west": {"uv": [7, 5.75, 7.5, 6.125], "texture": "#0"},
				"up": {"uv": [1.75, 8.25, 1.5, 7.75], "texture": "#0"},
				"down": {"uv": [2, 7.75, 1.75, 8.25], "texture": "#0"}
			}
		},
		{
			"from": [5.5, 8, 14],
			"to": [6.5, 8.5, 16],
			"faces": {
				"north": {"uv": [4.5, 10.75, 4.75, 10.875], "texture": "#0"},
				"east": {"uv": [10.5, 5.75, 11, 5.875], "texture": "#0"},
				"south": {"uv": [10.75, 4.5, 11, 4.625], "texture": "#0"},
				"west": {"uv": [10.5, 6, 11, 6.125], "texture": "#0"},
				"up": {"uv": [7.75, 7.75, 7.5, 7.25], "texture": "#0"},
				"down": {"uv": [0.75, 7.75, 0.5, 8.25], "texture": "#0"}
			}
		},
		{
			"from": [8.5, 8, 14],
			"to": [9.5, 8.5, 16],
			"faces": {
				"north": {"uv": [6.5, 10.75, 6.75, 10.875], "texture": "#0"},
				"east": {"uv": [6.75, 10.5, 7.25, 10.625], "texture": "#0"},
				"south": {"uv": [6.75, 10.75, 7, 10.875], "texture": "#0"},
				"west": {"uv": [10.5, 6.75, 11, 6.875], "texture": "#0"},
				"up": {"uv": [2.25, 8.25, 2, 7.75], "texture": "#0"},
				"down": {"uv": [8, 2, 7.75, 2.5], "texture": "#0"}
			}
		},
		{
			"from": [9, 7, 14],
			"to": [10, 8, 16],
			"faces": {
				"north": {"uv": [10.5, 5, 10.75, 5.25], "texture": "#0"},
				"east": {"uv": [7.5, 5.75, 8, 6], "texture": "#0"},
				"south": {"uv": [10.5, 5.25, 10.75, 5.5], "texture": "#0"},
				"west": {"uv": [7.5, 6, 8, 6.25], "texture": "#0"},
				"up": {"uv": [7.75, 6.75, 7.5, 6.25], "texture": "#0"},
				"down": {"uv": [7.75, 6.75, 7.5, 7.25], "texture": "#0"}
			}
		},
		{
			"from": [6.5, 8, 0],
			"to": [7, 8.5, 20],
			"faces": {
				"north": {"uv": [11, 0.75, 11.125, 0.875], "texture": "#0"},
				"east": {"uv": [5.25, 4, 10.25, 4.125], "texture": "#0"},
				"south": {"uv": [11, 1.5, 11.125, 1.625], "texture": "#0"},
				"west": {"uv": [5.25, 4.25, 10.25, 4.375], "texture": "#0"},
				"up": {"uv": [5.375, 9.5, 5.25, 4.5], "texture": "#0"},
				"down": {"uv": [3.125, 5.5, 3, 10.5], "texture": "#0"}
			}
		},
		{
			"from": [8, 6.5, 0],
			"to": [8.5, 7, 20],
			"faces": {
				"north": {"uv": [11, 2.5, 11.125, 2.625], "texture": "#0"},
				"east": {"uv": [5.5, 0.5, 10.5, 0.625], "texture": "#0"},
				"south": {"uv": [2.75, 11, 2.875, 11.125], "texture": "#0"},
				"west": {"uv": [5.5, 0.75, 10.5, 0.875], "texture": "#0"},
				"up": {"uv": [3.875, 10.5, 3.75, 5.5], "texture": "#0"},
				"down": {"uv": [4.125, 5.5, 4, 10.5], "texture": "#0"}
			}
		},
		{
			"from": [6.5, 6.5, 0],
			"to": [7, 7, 20],
			"faces": {
				"north": {"uv": [11, 2.75, 11.125, 2.875], "texture": "#0"},
				"east": {"uv": [5.5, 4.5, 10.5, 4.625], "texture": "#0"},
				"south": {"uv": [3, 11, 3.125, 11.125], "texture": "#0"},
				"west": {"uv": [5.5, 4.75, 10.5, 4.875], "texture": "#0"},
				"up": {"uv": [4.375, 10.5, 4.25, 5.5], "texture": "#0"},
				"down": {"uv": [4.625, 5.5, 4.5, 10.5], "texture": "#0"}
			}
		},
		{
			"from": [8, 8, 0],
			"to": [8.5, 8.5, 20],
			"faces": {
				"north": {"uv": [11, 1.75, 11.125, 1.875], "texture": "#0"},
				"east": {"uv": [5.5, 0, 10.5, 0.125], "texture": "#0"},
				"south": {"uv": [2.5, 11, 2.625, 11.125], "texture": "#0"},
				"west": {"uv": [5.5, 0.25, 10.5, 0.375], "texture": "#0"},
				"up": {"uv": [3.375, 10.5, 3.25, 5.5], "texture": "#0"},
				"down": {"uv": [3.625, 5.5, 3.5, 10.5], "texture": "#0"}
			}
		},
		{
			"from": [8, 7, 0],
			"to": [9, 8, 20],
			"faces": {
				"north": {"uv": [10.5, 0.75, 10.75, 1], "texture": "#0"},
				"east": {"uv": [2, 2, 7, 2.25], "texture": "#0"},
				"south": {"uv": [10.5, 1.5, 10.75, 1.75], "texture": "#0"},
				"west": {"uv": [2, 2.25, 7, 2.5], "texture": "#0"},
				"up": {"uv": [2.25, 7.5, 2, 2.5], "texture": "#0"},
				"down": {"uv": [2.5, 2.5, 2.25, 7.5], "texture": "#0"}
			}
		},
		{
			"from": [7, 6, 0],
			"to": [8, 7, 20],
			"faces": {
				"north": {"uv": [10.5, 0.25, 10.75, 0.5], "texture": "#0"},
				"east": {"uv": [1, 1, 6, 1.25], "texture": "#0"},
				"south": {"uv": [0.5, 10.5, 0.75, 10.75], "texture": "#0"},
				"west": {"uv": [1, 1.25, 6, 1.5], "texture": "#0"},
				"up": {"uv": [1.25, 6.5, 1, 1.5], "texture": "#0"},
				"down": {"uv": [1.5, 1.5, 1.25, 6.5], "texture": "#0"}
			}
		},
		{
			"from": [7, 8, 0],
			"to": [8, 9, 20],
			"faces": {
				"north": {"uv": [10.25, 10.25, 10.5, 10.5], "texture": "#0"},
				"east": {"uv": [0.5, 0.5, 5.5, 0.75], "texture": "#0"},
				"south": {"uv": [10.5, 0, 10.75, 0.25], "texture": "#0"},
				"west": {"uv": [0.5, 0.75, 5.5, 1], "texture": "#0"},
				"up": {"uv": [0.75, 6, 0.5, 1], "texture": "#0"},
				"down": {"uv": [1, 1, 0.75, 6], "texture": "#0"}
			}
		},
		{
			"from": [7, 9, 16],
			"to": [8, 11, 17],
			"faces": {
				"north": {"uv": [0.5, 7.25, 0.75, 7.75], "texture": "#0"},
				"east": {"uv": [0.75, 7.25, 1, 7.75], "texture": "#0"},
				"south": {"uv": [6.25, 7.25, 6.5, 7.75], "texture": "#0"},
				"west": {"uv": [6.5, 7.25, 6.75, 7.75], "texture": "#0"},
				"up": {"uv": [10.75, 2, 10.5, 1.75], "texture": "#0"},
				"down": {"uv": [2.75, 10.5, 2.5, 10.75], "texture": "#0"}
			}
		},
		{
			"from": [7.125, 10, -1.25],
			"to": [7.875, 10.75, 19],
			"faces": {
				"north": {"uv": [10.75, 0, 10.9375, 0.1875], "texture": "#0"},
				"east": {"uv": [2.5, 2.5, 7.5625, 2.6875], "texture": "#0"},
				"south": {"uv": [10.75, 0.25, 10.9375, 0.4375], "texture": "#0"},
				"west": {"uv": [2.5, 2.75, 7.5625, 2.9375], "texture": "#0"},
				"up": {"uv": [2.6875, 8.0625, 2.5, 3], "texture": "#0"},
				"down": {"uv": [2.9375, 3, 2.75, 8.0625], "texture": "#0"}
			}
		},
		{
			"from": [7, 9, 11],
			"to": [8, 11, 12],
			"faces": {
				"north": {"uv": [6.75, 7.25, 7, 7.75], "texture": "#0"},
				"east": {"uv": [7, 7.25, 7.25, 7.75], "texture": "#0"},
				"south": {"uv": [7.25, 7.25, 7.5, 7.75], "texture": "#0"},
				"west": {"uv": [7.5, 1, 7.75, 1.5], "texture": "#0"},
				"up": {"uv": [10.75, 2.75, 10.5, 2.5], "texture": "#0"},
				"down": {"uv": [3, 10.5, 2.75, 10.75], "texture": "#0"}
			}
		},
		{
			"from": [7, 9, 13],
			"to": [8, 10, 15],
			"faces": {
				"north": {"uv": [10.5, 4, 10.75, 4.25], "texture": "#0"},
				"east": {"uv": [7.25, 5.5, 7.75, 5.75], "texture": "#0"},
				"south": {"uv": [4.25, 10.5, 4.5, 10.75], "texture": "#0"},
				"west": {"uv": [2, 7.5, 2.5, 7.75], "texture": "#0"},
				"up": {"uv": [7.75, 2.5, 7.5, 2], "texture": "#0"},
				"down": {"uv": [7.75, 3, 7.5, 3.5], "texture": "#0"}
			}
		},
		{
			"from": [7, 9, 8],
			"to": [8, 10, 9],
			"faces": {
				"north": {"uv": [10.5, 2.75, 10.75, 3], "texture": "#0"},
				"east": {"uv": [3, 10.5, 3.25, 10.75], "texture": "#0"},
				"south": {"uv": [10.5, 3, 10.75, 3.25], "texture": "#0"},
				"west": {"uv": [3.25, 10.5, 3.5, 10.75], "texture": "#0"},
				"up": {"uv": [10.75, 3.5, 10.5, 3.25], "texture": "#0"},
				"down": {"uv": [3.75, 10.5, 3.5, 10.75], "texture": "#0"}
			}
		},
		{
			"from": [7, 9.875, 1],
			"to": [8, 10.875, 7],
			"faces": {
				"north": {"uv": [10.5, 4.25, 10.75, 4.5], "texture": "#0"},
				"east": {"uv": [6, 1, 7.5, 1.25], "texture": "#0"},
				"south": {"uv": [4.5, 10.5, 4.75, 10.75], "texture": "#0"},
				"west": {"uv": [6, 1.25, 7.5, 1.5], "texture": "#0"},
				"up": {"uv": [6.25, 6.5, 6, 5], "texture": "#0"},
				"down": {"uv": [6.5, 5, 6.25, 6.5], "texture": "#0"}
			}
		},
		{
			"from": [7, 4.5, 0.5],
			"to": [8, 6, 7.5],
			"faces": {
				"north": {"uv": [0.5, 10, 0.75, 10.375], "texture": "#0"},
				"east": {"uv": [5.25, 3, 7, 3.375], "texture": "#0"},
				"south": {"uv": [0.75, 10, 1, 10.375], "texture": "#0"},
				"west": {"uv": [5.25, 3.5, 7, 3.875], "texture": "#0"},
				"up": {"uv": [5.75, 6.75, 5.5, 5], "texture": "#0"},
				"down": {"uv": [6, 5, 5.75, 6.75], "texture": "#0"}
			}
		},
		{
			"from": [6.75, 4, 0],
			"to": [8.25, 6, 0.5],
			"faces": {
				"north": {"uv": [7, 6.25, 7.375, 6.75], "texture": "#0"},
				"east": {"uv": [10.5, 7, 10.625, 7.5], "texture": "#0"},
				"south": {"uv": [7, 6.75, 7.375, 7.25], "texture": "#0"},
				"west": {"uv": [7.25, 10.5, 7.375, 11], "texture": "#0"},
				"up": {"uv": [7.875, 10.625, 7.5, 10.5], "texture": "#0"},
				"down": {"uv": [10.875, 7.5, 10.5, 7.625], "texture": "#0"}
			}
		},
		{
			"from": [7, 8, -1],
			"to": [8, 11, 0],
			"faces": {
				"north": {"uv": [6.75, 5.75, 7, 6.5], "texture": "#0"},
				"east": {"uv": [6.75, 6.5, 7, 7.25], "texture": "#0"},
				"south": {"uv": [1.5, 7, 1.75, 7.75], "texture": "#0"},
				"west": {"uv": [1.75, 7, 2, 7.75], "texture": "#0"},
				"up": {"uv": [4, 10.75, 3.75, 10.5], "texture": "#0"},
				"down": {"uv": [4.25, 10.5, 4, 10.75], "texture": "#0"}
			}
		},
		{
			"from": [5.75, 7, 0],
			"to": [6, 7.25, 7],
			"faces": {
				"north": {"uv": [11.75, 1.75, 11.8125, 1.8125], "texture": "#0"},
				"east": {"uv": [7.75, 5.5, 9.5, 5.5625], "texture": "#0"},
				"south": {"uv": [2, 11.75, 2.0625, 11.8125], "texture": "#0"},
				"west": {"uv": [6, 7.75, 7.75, 7.8125], "texture": "#0"},
				"up": {"uv": [2.3125, 9.5, 2.25, 7.75], "texture": "#0"},
				"down": {"uv": [4.8125, 7.75, 4.75, 9.5], "texture": "#0"}
			}
		},
		{
			"from": [6.25, 6.75, 0],
			"to": [6.5, 7, 7],
			"faces": {
				"north": {"uv": [11.75, 4.25, 11.8125, 4.3125], "texture": "#0"},
				"east": {"uv": [6.25, 8.5, 8, 8.5625], "texture": "#0"},
				"south": {"uv": [4.5, 11.75, 4.5625, 11.8125], "texture": "#0"},
				"west": {"uv": [8.5, 7.25, 10.25, 7.3125], "texture": "#0"},
				"up": {"uv": [8.5625, 9.25, 8.5, 7.5], "texture": "#0"},
				"down": {"uv": [8.0625, 8.5, 8, 10.25], "texture": "#0"}
			}
		},
		{
			"from": [8.5, 6.75, 0],
			"to": [8.75, 7, 7],
			"faces": {
				"north": {"uv": [11.75, 4.5, 11.8125, 4.5625], "texture": "#0"},
				"east": {"uv": [8.75, 1.5, 10.5, 1.5625], "texture": "#0"},
				"south": {"uv": [4.75, 11.75, 4.8125, 11.8125], "texture": "#0"},
				"west": {"uv": [8.75, 1.75, 10.5, 1.8125], "texture": "#0"},
				"up": {"uv": [6.3125, 10.5, 6.25, 8.75], "texture": "#0"},
				"down": {"uv": [6.5625, 8.75, 6.5, 10.5], "texture": "#0"}
			}
		},
		{
			"from": [8, 6.25, 0],
			"to": [8.25, 6.5, 7],
			"faces": {
				"north": {"uv": [11.75, 4.75, 11.8125, 4.8125], "texture": "#0"},
				"east": {"uv": [8.75, 5, 10.5, 5.0625], "texture": "#0"},
				"south": {"uv": [5, 11.75, 5.0625, 11.8125], "texture": "#0"},
				"west": {"uv": [8.75, 5.25, 10.5, 5.3125], "texture": "#0"},
				"up": {"uv": [6.8125, 10.5, 6.75, 8.75], "texture": "#0"},
				"down": {"uv": [7.0625, 8.75, 7, 10.5], "texture": "#0"}
			}
		},
		{
			"from": [6.75, 6.25, 0],
			"to": [7, 6.5, 7],
			"faces": {
				"north": {"uv": [11.75, 5, 11.8125, 5.0625], "texture": "#0"},
				"east": {"uv": [8.75, 7.5, 10.5, 7.5625], "texture": "#0"},
				"south": {"uv": [5.25, 11.75, 5.3125, 11.8125], "texture": "#0"},
				"west": {"uv": [8.75, 7.75, 10.5, 7.8125], "texture": "#0"},
				"up": {"uv": [7.3125, 10.5, 7.25, 8.75], "texture": "#0"},
				"down": {"uv": [7.5625, 8.75, 7.5, 10.5], "texture": "#0"}
			}
		},
		{
			"from": [5.75, 7.5, 0],
			"to": [6, 7.75, 7],
			"faces": {
				"north": {"uv": [11.75, 2, 11.8125, 2.0625], "texture": "#0"},
				"east": {"uv": [7.75, 6.25, 9.5, 6.3125], "texture": "#0"},
				"south": {"uv": [2.25, 11.75, 2.3125, 11.8125], "texture": "#0"},
				"west": {"uv": [7.75, 6.5, 9.5, 6.5625], "texture": "#0"},
				"up": {"uv": [5.0625, 9.5, 5, 7.75], "texture": "#0"},
				"down": {"uv": [7.8125, 6.75, 7.75, 8.5], "texture": "#0"}
			}
		},
		{
			"from": [6.75, 8.5, 0],
			"to": [7, 8.75, 7],
			"faces": {
				"north": {"uv": [11.75, 2.25, 11.8125, 2.3125], "texture": "#0"},
				"east": {"uv": [8, 1, 9.75, 1.0625], "texture": "#0"},
				"south": {"uv": [2.5, 11.75, 2.5625, 11.8125], "texture": "#0"},
				"west": {"uv": [8, 1.25, 9.75, 1.3125], "texture": "#0"},
				"up": {"uv": [0.0625, 9.75, 0, 8], "texture": "#0"},
				"down": {"uv": [0.3125, 8, 0.25, 9.75], "texture": "#0"}
			}
		},
		{
			"from": [8.5, 8, 0],
			"to": [8.75, 8.25, 7],
			"faces": {
				"north": {"uv": [11.75, 2.75, 11.8125, 2.8125], "texture": "#0"},
				"east": {"uv": [8, 3.5, 9.75, 3.5625], "texture": "#0"},
				"south": {"uv": [3, 11.75, 3.0625, 11.8125], "texture": "#0"},
				"west": {"uv": [8, 3.75, 9.75, 3.8125], "texture": "#0"},
				"up": {"uv": [5.5625, 9.75, 5.5, 8], "texture": "#0"},
				"down": {"uv": [5.8125, 8, 5.75, 9.75], "texture": "#0"}
			}
		},
		{
			"from": [8, 8.5, 0],
			"to": [8.25, 8.75, 7],
			"faces": {
				"north": {"uv": [11.75, 4, 11.8125, 4.0625], "texture": "#0"},
				"east": {"uv": [8.25, 6.75, 10, 6.8125], "texture": "#0"},
				"south": {"uv": [4.25, 11.75, 4.3125, 11.8125], "texture": "#0"},
				"west": {"uv": [8.25, 7, 10, 7.0625], "texture": "#0"},
				"up": {"uv": [8.3125, 9, 8.25, 7.25], "texture": "#0"},
				"down": {"uv": [6.0625, 8.5, 6, 10.25], "texture": "#0"}
			}
		},
		{
			"from": [7.5, 9, 0],
			"to": [7.75, 9.25, 7],
			"faces": {
				"north": {"uv": [11.75, 3.5, 11.8125, 3.5625], "texture": "#0"},
				"east": {"uv": [8.25, 2.75, 10, 2.8125], "texture": "#0"},
				"south": {"uv": [3.75, 11.75, 3.8125, 11.8125], "texture": "#0"},
				"west": {"uv": [8.25, 3, 10, 3.0625], "texture": "#0"},
				"up": {"uv": [1.8125, 10, 1.75, 8.25], "texture": "#0"},
				"down": {"uv": [2.0625, 8.25, 2, 10], "texture": "#0"}
			}
		},
		{
			"from": [7, 9, 0],
			"to": [7.25, 9.25, 7],
			"faces": {
				"north": {"uv": [11.75, 3.75, 11.8125, 3.8125], "texture": "#0"},
				"east": {"uv": [8.25, 3.25, 10, 3.3125], "texture": "#0"},
				"south": {"uv": [4, 11.75, 4.0625, 11.8125], "texture": "#0"},
				"west": {"uv": [6, 8.25, 7.75, 8.3125], "texture": "#0"},
				"up": {"uv": [2.5625, 10, 2.5, 8.25], "texture": "#0"},
				"down": {"uv": [2.8125, 8.25, 2.75, 10], "texture": "#0"}
			}
		},
		{
			"from": [9, 7.25, 0],
			"to": [9.25, 7.5, 7],
			"faces": {
				"north": {"uv": [11.75, 3, 11.8125, 3.0625], "texture": "#0"},
				"east": {"uv": [8, 5.75, 9.75, 5.8125], "texture": "#0"},
				"south": {"uv": [3.25, 11.75, 3.3125, 11.8125], "texture": "#0"},
				"west": {"uv": [6, 8, 7.75, 8.0625], "texture": "#0"},
				"up": {"uv": [8.0625, 8.5, 8, 6.75], "texture": "#0"},
				"down": {"uv": [0.5625, 8.25, 0.5, 10], "texture": "#0"}
			}
		},
		{
			"from": [9, 7.75, 0],
			"to": [9.25, 8, 7],
			"faces": {
				"north": {"uv": [11.75, 3.25, 11.8125, 3.3125], "texture": "#0"},
				"east": {"uv": [8, 6, 9.75, 6.0625], "texture": "#0"},
				"south": {"uv": [3.5, 11.75, 3.5625, 11.8125], "texture": "#0"},
				"west": {"uv": [8.25, 2.5, 10, 2.5625], "texture": "#0"},
				"up": {"uv": [0.8125, 10, 0.75, 8.25], "texture": "#0"},
				"down": {"uv": [1.5625, 8.25, 1.5, 10], "texture": "#0"}
			}
		},
		{
			"from": [6.25, 8, 0],
			"to": [6.5, 8.25, 7],
			"faces": {
				"north": {"uv": [11.75, 2.5, 11.8125, 2.5625], "texture": "#0"},
				"east": {"uv": [8, 2, 9.75, 2.0625], "texture": "#0"},
				"south": {"uv": [2.75, 11.75, 2.8125, 11.8125], "texture": "#0"},
				"west": {"uv": [8, 2.25, 9.75, 2.3125], "texture": "#0"},
				"up": {"uv": [1.0625, 9.75, 1, 8], "texture": "#0"},
				"down": {"uv": [1.3125, 8, 1.25, 9.75], "texture": "#0"}
			}
		},
		{
			"from": [6, 8, 0],
			"to": [6.25, 8.25, 7],
			"faces": {
				"north": {"uv": [11.75, 9.5, 11.8125, 9.5625], "texture": "#0"},
				"east": {"uv": [9, 8.5, 10.75, 8.5625], "texture": "#0"},
				"south": {"uv": [9.75, 11.75, 9.8125, 11.8125], "texture": "#0"},
				"west": {"uv": [9, 8.75, 10.75, 8.8125], "texture": "#0"},
				"up": {"uv": [8.3125, 10.75, 8.25, 9], "texture": "#0"},
				"down": {"uv": [9.0625, 9, 9, 10.75], "texture": "#0"}
			}
		},
		{
			"from": [6.75, 6, 0],
			"to": [7, 6.25, 7],
			"faces": {
				"north": {"uv": [7, 12, 7.0625, 12.0625], "texture": "#0"},
				"east": {"uv": [9.75, 2, 11.5, 2.0625], "texture": "#0"},
				"south": {"uv": [12, 7, 12.0625, 7.0625], "texture": "#0"},
				"west": {"uv": [9.75, 2.25, 11.5, 2.3125], "texture": "#0"},
				"up": {"uv": [1.3125, 11.5, 1.25, 9.75], "texture": "#0"},
				"down": {"uv": [5.5625, 9.75, 5.5, 11.5], "texture": "#0"}
			}
		},
		{
			"from": [8, 8.75, 0],
			"to": [8.25, 9, 7],
			"faces": {
				"north": {"uv": [1.25, 12, 1.3125, 12.0625], "texture": "#0"},
				"east": {"uv": [9.5, 5.5, 11.25, 5.5625], "texture": "#0"},
				"south": {"uv": [12, 1.25, 12.0625, 1.3125], "texture": "#0"},
				"west": {"uv": [9.5, 6.25, 11.25, 6.3125], "texture": "#0"},
				"up": {"uv": [4.8125, 11.25, 4.75, 9.5], "texture": "#0"},
				"down": {"uv": [5.0625, 9.5, 5, 11.25], "texture": "#0"}
			}
		},
		{
			"from": [8.75, 6.75, 0],
			"to": [9, 7, 7],
			"faces": {
				"north": {"uv": [4.5, 12, 4.5625, 12.0625], "texture": "#0"},
				"east": {"uv": [9.5, 6.5, 11.25, 6.5625], "texture": "#0"},
				"south": {"uv": [12, 4.5, 12.0625, 4.5625], "texture": "#0"},
				"west": {"uv": [9.25, 9.5, 11, 9.5625], "texture": "#0"},
				"up": {"uv": [5.3125, 11.25, 5.25, 9.5], "texture": "#0"},
				"down": {"uv": [0.0625, 9.75, 0, 11.5], "texture": "#0"}
			}
		},
		{
			"from": [5.75, 7.25, 0],
			"to": [6, 7.5, 1],
			"faces": {
				"north": {"uv": [11.75, 6, 11.8125, 6.0625], "texture": "#0"},
				"east": {"uv": [11, 5, 11.25, 5.0625], "texture": "#0"},
				"south": {"uv": [6.25, 11.75, 6.3125, 11.8125], "texture": "#0"},
				"west": {"uv": [11, 5.25, 11.25, 5.3125], "texture": "#0"},
				"up": {"uv": [11.0625, 6, 11, 5.75], "texture": "#0"},
				"down": {"uv": [11.0625, 6, 11, 6.25], "texture": "#0"}
			}
		},
		{
			"from": [5.75, 7.25, 2],
			"to": [6, 7.5, 3],
			"faces": {
				"north": {"uv": [11.75, 5.75, 11.8125, 5.8125], "texture": "#0"},
				"east": {"uv": [11, 4.25, 11.25, 4.3125], "texture": "#0"},
				"south": {"uv": [6, 11.75, 6.0625, 11.8125], "texture": "#0"},
				"west": {"uv": [4.5, 11, 4.75, 11.0625], "texture": "#0"},
				"up": {"uv": [11.0625, 4.75, 11, 4.5], "texture": "#0"},
				"down": {"uv": [11.0625, 4.75, 11, 5], "texture": "#0"}
			}
		},
		{
			"from": [5.75, 7.25, 4],
			"to": [6, 7.5, 5],
			"faces": {
				"north": {"uv": [11.75, 5.5, 11.8125, 5.5625], "texture": "#0"},
				"east": {"uv": [3.75, 11, 4, 11.0625], "texture": "#0"},
				"south": {"uv": [5.75, 11.75, 5.8125, 11.8125], "texture": "#0"},
				"west": {"uv": [4, 11, 4.25, 11.0625], "texture": "#0"},
				"up": {"uv": [11.0625, 4.25, 11, 4], "texture": "#0"},
				"down": {"uv": [4.3125, 11, 4.25, 11.25], "texture": "#0"}
			}
		},
		{
			"from": [5.75, 7.25, 6],
			"to": [6, 7.5, 7],
			"faces": {
				"north": {"uv": [11.75, 5.25, 11.8125, 5.3125], "texture": "#0"},
				"east": {"uv": [11, 3, 11.25, 3.0625], "texture": "#0"},
				"south": {"uv": [5.5, 11.75, 5.5625, 11.8125], "texture": "#0"},
				"west": {"uv": [3.25, 11, 3.5, 11.0625], "texture": "#0"},
				"up": {"uv": [11.0625, 3.5, 11, 3.25], "texture": "#0"},
				"down": {"uv": [3.5625, 11, 3.5, 11.25], "texture": "#0"}
			}
		},
		{
			"from": [6.25, 8.25, 0],
			"to": [6.5, 8.5, 1],
			"faces": {
				"north": {"uv": [11.75, 6.25, 11.8125, 6.3125], "texture": "#0"},
				"east": {"uv": [6.25, 11, 6.5, 11.0625], "texture": "#0"},
				"south": {"uv": [6.5, 11.75, 6.5625, 11.8125], "texture": "#0"},
				"west": {"uv": [6.5, 11, 6.75, 11.0625], "texture": "#0"},
				"up": {"uv": [6.8125, 11.25, 6.75, 11], "texture": "#0"},
				"down": {"uv": [11.0625, 6.75, 11, 7], "texture": "#0"}
			}
		},
		{
			"from": [6.25, 8.25, 2],
			"to": [6.5, 8.5, 3],
			"faces": {
				"north": {"uv": [11.75, 6.5, 11.8125, 6.5625], "texture": "#0"},
				"east": {"uv": [7, 11, 7.25, 11.0625], "texture": "#0"},
				"south": {"uv": [6.75, 11.75, 6.8125, 11.8125], "texture": "#0"},
				"west": {"uv": [11, 7, 11.25, 7.0625], "texture": "#0"},
				"up": {"uv": [7.3125, 11.25, 7.25, 11], "texture": "#0"},
				"down": {"uv": [11.0625, 7.25, 11, 7.5], "texture": "#0"}
			}
		},
		{
			"from": [6.25, 8.25, 4],
			"to": [6.5, 8.5, 5],
			"faces": {
				"north": {"uv": [11.75, 6.75, 11.8125, 6.8125], "texture": "#0"},
				"east": {"uv": [7.5, 11, 7.75, 11.0625], "texture": "#0"},
				"south": {"uv": [7, 11.75, 7.0625, 11.8125], "texture": "#0"},
				"west": {"uv": [11, 7.5, 11.25, 7.5625], "texture": "#0"},
				"up": {"uv": [7.8125, 11.25, 7.75, 11], "texture": "#0"},
				"down": {"uv": [11.0625, 7.75, 11, 8], "texture": "#0"}
			}
		},
		{
			"from": [6.25, 8.25, 6],
			"to": [6.5, 8.5, 7],
			"faces": {
				"north": {"uv": [11.75, 7, 11.8125, 7.0625], "texture": "#0"},
				"east": {"uv": [11, 8, 11.25, 8.0625], "texture": "#0"},
				"south": {"uv": [7.25, 11.75, 7.3125, 11.8125], "texture": "#0"},
				"west": {"uv": [8.25, 11, 8.5, 11.0625], "texture": "#0"},
				"up": {"uv": [11.0625, 8.5, 11, 8.25], "texture": "#0"},
				"down": {"uv": [8.5625, 11, 8.5, 11.25], "texture": "#0"}
			}
		},
		{
			"from": [6.5, 6.25, 6],
			"to": [6.75, 6.5, 7],
			"faces": {
				"north": {"uv": [8, 12, 8.0625, 12.0625], "texture": "#0"},
				"east": {"uv": [10.5, 11.5, 10.75, 11.5625], "texture": "#0"},
				"south": {"uv": [12, 8, 12.0625, 8.0625], "texture": "#0"},
				"west": {"uv": [11.5, 10.5, 11.75, 10.5625], "texture": "#0"},
				"up": {"uv": [10.8125, 11.75, 10.75, 11.5], "texture": "#0"},
				"down": {"uv": [11.5625, 10.75, 11.5, 11], "texture": "#0"}
			}
		},
		{
			"from": [6.5, 6.25, 4],
			"to": [6.75, 6.5, 5],
			"faces": {
				"north": {"uv": [7.75, 12, 7.8125, 12.0625], "texture": "#0"},
				"east": {"uv": [10, 11.5, 10.25, 11.5625], "texture": "#0"},
				"south": {"uv": [12, 7.75, 12.0625, 7.8125], "texture": "#0"},
				"west": {"uv": [11.5, 10, 11.75, 10.0625], "texture": "#0"},
				"up": {"uv": [10.3125, 11.75, 10.25, 11.5], "texture": "#0"},
				"down": {"uv": [11.5625, 10.25, 11.5, 10.5], "texture": "#0"}
			}
		},
		{
			"from": [6.5, 6.25, 2],
			"to": [6.75, 6.5, 3],
			"faces": {
				"north": {"uv": [7.5, 12, 7.5625, 12.0625], "texture": "#0"},
				"east": {"uv": [9.5, 11.5, 9.75, 11.5625], "texture": "#0"},
				"south": {"uv": [12, 7.5, 12.0625, 7.5625], "texture": "#0"},
				"west": {"uv": [11.5, 9.5, 11.75, 9.5625], "texture": "#0"},
				"up": {"uv": [9.8125, 11.75, 9.75, 11.5], "texture": "#0"},
				"down": {"uv": [11.5625, 9.75, 11.5, 10], "texture": "#0"}
			}
		},
		{
			"from": [6.5, 6.25, 0],
			"to": [6.75, 6.5, 1],
			"faces": {
				"north": {"uv": [7.25, 12, 7.3125, 12.0625], "texture": "#0"},
				"east": {"uv": [9, 11.5, 9.25, 11.5625], "texture": "#0"},
				"south": {"uv": [12, 7.25, 12.0625, 7.3125], "texture": "#0"},
				"west": {"uv": [11.5, 9, 11.75, 9.0625], "texture": "#0"},
				"up": {"uv": [9.3125, 11.75, 9.25, 11.5], "texture": "#0"},
				"down": {"uv": [11.5625, 9.25, 11.5, 9.5], "texture": "#0"}
			}
		},
		{
			"from": [8.25, 8.5, 0],
			"to": [8.5, 8.75, 1],
			"faces": {
				"north": {"uv": [1, 12, 1.0625, 12.0625], "texture": "#0"},
				"east": {"uv": [11.25, 9.75, 11.5, 9.8125], "texture": "#0"},
				"south": {"uv": [12, 1, 12.0625, 1.0625], "texture": "#0"},
				"west": {"uv": [10, 11.25, 10.25, 11.3125], "texture": "#0"},
				"up": {"uv": [11.3125, 10.25, 11.25, 10], "texture": "#0"},
				"down": {"uv": [10.3125, 11.25, 10.25, 11.5], "texture": "#0"}
			}
		},
		{
			"from": [8.25, 8.5, 2],
			"to": [8.5, 8.75, 3],
			"faces": {
				"north": {"uv": [0.75, 12, 0.8125, 12.0625], "texture": "#0"},
				"east": {"uv": [11.25, 9.25, 11.5, 9.3125], "texture": "#0"},
				"south": {"uv": [12, 0.75, 12.0625, 0.8125], "texture": "#0"},
				"west": {"uv": [9.5, 11.25, 9.75, 11.3125], "texture": "#0"},
				"up": {"uv": [11.3125, 9.75, 11.25, 9.5], "texture": "#0"},
				"down": {"uv": [9.8125, 11.25, 9.75, 11.5], "texture": "#0"}
			}
		},
		{
			"from": [8.25, 8.5, 4],
			"to": [8.5, 8.75, 5],
			"faces": {
				"north": {"uv": [0.5, 12, 0.5625, 12.0625], "texture": "#0"},
				"east": {"uv": [8.75, 11.25, 9, 11.3125], "texture": "#0"},
				"south": {"uv": [12, 0.5, 12.0625, 0.5625], "texture": "#0"},
				"west": {"uv": [11.25, 8.75, 11.5, 8.8125], "texture": "#0"},
				"up": {"uv": [9.0625, 11.5, 9, 11.25], "texture": "#0"},
				"down": {"uv": [11.3125, 9, 11.25, 9.25], "texture": "#0"}
			}
		},
		{
			"from": [8.25, 8.5, 6],
			"to": [8.5, 8.75, 7],
			"faces": {
				"north": {"uv": [0.25, 12, 0.3125, 12.0625], "texture": "#0"},
				"east": {"uv": [8.25, 11.25, 8.5, 11.3125], "texture": "#0"},
				"south": {"uv": [12, 0.25, 12.0625, 0.3125], "texture": "#0"},
				"west": {"uv": [11.25, 8.25, 11.5, 8.3125], "texture": "#0"},
				"up": {"uv": [8.5625, 11.5, 8.5, 11.25], "texture": "#0"},
				"down": {"uv": [11.3125, 8.5, 11.25, 8.75], "texture": "#0"}
			}
		},
		{
			"from": [8.5, 6.5, 0],
			"to": [8.75, 6.75, 1],
			"faces": {
				"north": {"uv": [5.5, 12, 5.5625, 12.0625], "texture": "#0"},
				"east": {"uv": [6.5, 11.5, 6.75, 11.5625], "texture": "#0"},
				"south": {"uv": [12, 5.5, 12.0625, 5.5625], "texture": "#0"},
				"west": {"uv": [11.5, 6.5, 11.75, 6.5625], "texture": "#0"},
				"up": {"uv": [6.8125, 11.75, 6.75, 11.5], "texture": "#0"},
				"down": {"uv": [11.5625, 6.75, 11.5, 7], "texture": "#0"}
			}
		},
		{
			"from": [8.5, 6.5, 2],
			"to": [8.75, 6.75, 3],
			"faces": {
				"north": {"uv": [5.25, 12, 5.3125, 12.0625], "texture": "#0"},
				"east": {"uv": [6, 11.5, 6.25, 11.5625], "texture": "#0"},
				"south": {"uv": [12, 5.25, 12.0625, 5.3125], "texture": "#0"},
				"west": {"uv": [11.5, 6, 11.75, 6.0625], "texture": "#0"},
				"up": {"uv": [6.3125, 11.75, 6.25, 11.5], "texture": "#0"},
				"down": {"uv": [11.5625, 6.25, 11.5, 6.5], "texture": "#0"}
			}
		},
		{
			"from": [8.5, 6.5, 4],
			"to": [8.75, 6.75, 5],
			"faces": {
				"north": {"uv": [5, 12, 5.0625, 12.0625], "texture": "#0"},
				"east": {"uv": [5.5, 11.5, 5.75, 11.5625], "texture": "#0"},
				"south": {"uv": [12, 5, 12.0625, 5.0625], "texture": "#0"},
				"west": {"uv": [11.5, 5.5, 11.75, 5.5625], "texture": "#0"},
				"up": {"uv": [5.8125, 11.75, 5.75, 11.5], "texture": "#0"},
				"down": {"uv": [11.5625, 5.75, 11.5, 6], "texture": "#0"}
			}
		},
		{
			"from": [8.5, 6.5, 6],
			"to": [8.75, 6.75, 7],
			"faces": {
				"north": {"uv": [4.75, 12, 4.8125, 12.0625], "texture": "#0"},
				"east": {"uv": [5, 11.5, 5.25, 11.5625], "texture": "#0"},
				"south": {"uv": [12, 4.75, 12.0625, 4.8125], "texture": "#0"},
				"west": {"uv": [11.5, 5, 11.75, 5.0625], "texture": "#0"},
				"up": {"uv": [5.3125, 11.75, 5.25, 11.5], "texture": "#0"},
				"down": {"uv": [11.5625, 5.25, 11.5, 5.5], "texture": "#0"}
			}
		},
		{
			"from": [6.5, 8.5, 0],
			"to": [6.75, 8.75, 7],
			"faces": {
				"north": {"uv": [11.75, 7.25, 11.8125, 7.3125], "texture": "#0"},
				"east": {"uv": [8.75, 8, 10.5, 8.0625], "texture": "#0"},
				"south": {"uv": [7.5, 11.75, 7.5625, 11.8125], "texture": "#0"},
				"west": {"uv": [8.75, 8.25, 10.5, 8.3125], "texture": "#0"},
				"up": {"uv": [7.8125, 10.5, 7.75, 8.75], "texture": "#0"},
				"down": {"uv": [8.8125, 8.5, 8.75, 10.25], "texture": "#0"}
			}
		},
		{
			"from": [6.25, 6.5, 0],
			"to": [6.5, 6.75, 7],
			"faces": {
				"north": {"uv": [9, 12, 9.0625, 12.0625], "texture": "#0"},
				"east": {"uv": [9.75, 3.5, 11.5, 3.5625], "texture": "#0"},
				"south": {"uv": [12, 9, 12.0625, 9.0625], "texture": "#0"},
				"west": {"uv": [9.75, 3.75, 11.5, 3.8125], "texture": "#0"},
				"up": {"uv": [5.8125, 11.5, 5.75, 9.75], "texture": "#0"},
				"down": {"uv": [9.3125, 9.75, 9.25, 11.5], "texture": "#0"}
			}
		},
		{
			"from": [8.5, 8.25, 0],
			"to": [8.75, 8.5, 7],
			"faces": {
				"north": {"uv": [0, 12, 0.0625, 12.0625], "texture": "#0"},
				"east": {"uv": [9.25, 9, 11, 9.0625], "texture": "#0"},
				"south": {"uv": [12, 0, 12.0625, 0.0625], "texture": "#0"},
				"west": {"uv": [9.25, 9.25, 11, 9.3125], "texture": "#0"},
				"up": {"uv": [8.5625, 11, 8.5, 9.25], "texture": "#0"},
				"down": {"uv": [2.3125, 9.5, 2.25, 11.25], "texture": "#0"}
			}
		},
		{
			"from": [8.25, 6.25, 0],
			"to": [8.5, 6.5, 7],
			"faces": {
				"north": {"uv": [5.75, 12, 5.8125, 12.0625], "texture": "#0"},
				"east": {"uv": [9.75, 1, 11.5, 1.0625], "texture": "#0"},
				"south": {"uv": [12, 5.75, 12.0625, 5.8125], "texture": "#0"},
				"west": {"uv": [9.75, 1.25, 11.5, 1.3125], "texture": "#0"},
				"up": {"uv": [0.3125, 11.5, 0.25, 9.75], "texture": "#0"},
				"down": {"uv": [1.0625, 9.75, 1, 11.5], "texture": "#0"}
			}
		},
		{
			"from": [6.75, 8.75, 0],
			"to": [7, 9, 1],
			"faces": {
				"north": {"uv": [11.75, 7.5, 11.8125, 7.5625], "texture": "#0"},
				"east": {"uv": [11, 8.5, 11.25, 8.5625], "texture": "#0"},
				"south": {"uv": [7.75, 11.75, 7.8125, 11.8125], "texture": "#0"},
				"west": {"uv": [11, 8.75, 11.25, 8.8125], "texture": "#0"},
				"up": {"uv": [9.0625, 11.25, 9, 11], "texture": "#0"},
				"down": {"uv": [11.0625, 9, 11, 9.25], "texture": "#0"}
			}
		},
		{
			"from": [6.75, 8.75, 2],
			"to": [7, 9, 3],
			"faces": {
				"north": {"uv": [11.75, 7.75, 11.8125, 7.8125], "texture": "#0"},
				"east": {"uv": [11, 9.25, 11.25, 9.3125], "texture": "#0"},
				"south": {"uv": [8, 11.75, 8.0625, 11.8125], "texture": "#0"},
				"west": {"uv": [11, 9.5, 11.25, 9.5625], "texture": "#0"},
				"up": {"uv": [11.0625, 10, 11, 9.75], "texture": "#0"},
				"down": {"uv": [11.0625, 10, 11, 10.25], "texture": "#0"}
			}
		},
		{
			"from": [6.75, 8.75, 4],
			"to": [7, 9, 5],
			"faces": {
				"north": {"uv": [11.75, 8, 11.8125, 8.0625], "texture": "#0"},
				"east": {"uv": [11, 10.25, 11.25, 10.3125], "texture": "#0"},
				"south": {"uv": [8.25, 11.75, 8.3125, 11.8125], "texture": "#0"},
				"west": {"uv": [10.5, 11, 10.75, 11.0625], "texture": "#0"},
				"up": {"uv": [11.0625, 10.75, 11, 10.5], "texture": "#0"},
				"down": {"uv": [10.8125, 11, 10.75, 11.25], "texture": "#0"}
			}
		},
		{
			"from": [6.75, 8.75, 6],
			"to": [7, 9, 7],
			"faces": {
				"north": {"uv": [11.75, 8.25, 11.8125, 8.3125], "texture": "#0"},
				"east": {"uv": [11, 10.75, 11.25, 10.8125], "texture": "#0"},
				"south": {"uv": [8.5, 11.75, 8.5625, 11.8125], "texture": "#0"},
				"west": {"uv": [11, 11, 11.25, 11.0625], "texture": "#0"},
				"up": {"uv": [11.3125, 0.25, 11.25, 0], "texture": "#0"},
				"down": {"uv": [11.3125, 0.25, 11.25, 0.5], "texture": "#0"}
			}
		},
		{
			"from": [6, 6.75, 0],
			"to": [6.25, 7, 1],
			"faces": {
				"north": {"uv": [9.25, 12, 9.3125, 12.0625], "texture": "#0"},
				"east": {"uv": [11.75, 0.75, 12, 0.8125], "texture": "#0"},
				"south": {"uv": [12, 9.25, 12.0625, 9.3125], "texture": "#0"},
				"west": {"uv": [1, 11.75, 1.25, 11.8125], "texture": "#0"},
				"up": {"uv": [11.8125, 1.25, 11.75, 1], "texture": "#0"},
				"down": {"uv": [1.3125, 11.75, 1.25, 12], "texture": "#0"}
			}
		},
		{
			"from": [6, 6.75, 2],
			"to": [6.25, 7, 3],
			"faces": {
				"north": {"uv": [8.75, 12, 8.8125, 12.0625], "texture": "#0"},
				"east": {"uv": [11.75, 0.25, 12, 0.3125], "texture": "#0"},
				"south": {"uv": [12, 8.75, 12.0625, 8.8125], "texture": "#0"},
				"west": {"uv": [0.5, 11.75, 0.75, 11.8125], "texture": "#0"},
				"up": {"uv": [11.8125, 0.75, 11.75, 0.5], "texture": "#0"},
				"down": {"uv": [0.8125, 11.75, 0.75, 12], "texture": "#0"}
			}
		},
		{
			"from": [6, 6.75, 4],
			"to": [6.25, 7, 5],
			"faces": {
				"north": {"uv": [8.5, 12, 8.5625, 12.0625], "texture": "#0"},
				"east": {"uv": [11.5, 11.5, 11.75, 11.5625], "texture": "#0"},
				"south": {"uv": [12, 8.5, 12.0625, 8.5625], "texture": "#0"},
				"west": {"uv": [0, 11.75, 0.25, 11.8125], "texture": "#0"},
				"up": {"uv": [11.8125, 0.25, 11.75, 0], "texture": "#0"},
				"down": {"uv": [0.3125, 11.75, 0.25, 12], "texture": "#0"}
			}
		},
		{
			"from": [6, 6.75, 6],
			"to": [6.25, 7, 7],
			"faces": {
				"north": {"uv": [8.25, 12, 8.3125, 12.0625], "texture": "#0"},
				"east": {"uv": [11, 11.5, 11.25, 11.5625], "texture": "#0"},
				"south": {"uv": [12, 8.25, 12.0625, 8.3125], "texture": "#0"},
				"west": {"uv": [11.5, 11, 11.75, 11.0625], "texture": "#0"},
				"up": {"uv": [11.3125, 11.75, 11.25, 11.5], "texture": "#0"},
				"down": {"uv": [11.5625, 11.25, 11.5, 11.5], "texture": "#0"}
			}
		},
		{
			"from": [8.75, 8, 6],
			"to": [9, 8.25, 7],
			"faces": {
				"north": {"uv": [11.75, 11.5, 11.8125, 11.5625], "texture": "#0"},
				"east": {"uv": [7.75, 11.25, 8, 11.3125], "texture": "#0"},
				"south": {"uv": [11.75, 11.75, 11.8125, 11.8125], "texture": "#0"},
				"west": {"uv": [11.25, 7.75, 11.5, 7.8125], "texture": "#0"},
				"up": {"uv": [8.0625, 11.5, 8, 11.25], "texture": "#0"},
				"down": {"uv": [11.3125, 8, 11.25, 8.25], "texture": "#0"}
			}
		},
		{
			"from": [8.75, 8, 4],
			"to": [9, 8.25, 5],
			"faces": {
				"north": {"uv": [11.75, 11.25, 11.8125, 11.3125], "texture": "#0"},
				"east": {"uv": [7.25, 11.25, 7.5, 11.3125], "texture": "#0"},
				"south": {"uv": [11.5, 11.75, 11.5625, 11.8125], "texture": "#0"},
				"west": {"uv": [11.25, 7.25, 11.5, 7.3125], "texture": "#0"},
				"up": {"uv": [7.5625, 11.5, 7.5, 11.25], "texture": "#0"},
				"down": {"uv": [11.3125, 7.5, 11.25, 7.75], "texture": "#0"}
			}
		},
		{
			"from": [8.75, 8, 2],
			"to": [9, 8.25, 3],
			"faces": {
				"north": {"uv": [11.75, 11, 11.8125, 11.0625], "texture": "#0"},
				"east": {"uv": [6.75, 11.25, 7, 11.3125], "texture": "#0"},
				"south": {"uv": [11.25, 11.75, 11.3125, 11.8125], "texture": "#0"},
				"west": {"uv": [11.25, 6.75, 11.5, 6.8125], "texture": "#0"},
				"up": {"uv": [7.0625, 11.5, 7, 11.25], "texture": "#0"},
				"down": {"uv": [11.3125, 7, 11.25, 7.25], "texture": "#0"}
			}
		},
		{
			"from": [8.75, 8, 0],
			"to": [9, 8.25, 1],
			"faces": {
				"north": {"uv": [11.75, 10.75, 11.8125, 10.8125], "texture": "#0"},
				"east": {"uv": [6.25, 11.25, 6.5, 11.3125], "texture": "#0"},
				"south": {"uv": [11, 11.75, 11.0625, 11.8125], "texture": "#0"},
				"west": {"uv": [11.25, 6.25, 11.5, 6.3125], "texture": "#0"},
				"up": {"uv": [6.5625, 11.5, 6.5, 11.25], "texture": "#0"},
				"down": {"uv": [11.3125, 6.5, 11.25, 6.75], "texture": "#0"}
			}
		},
		{
			"from": [8, 6, 0],
			"to": [8.25, 6.25, 1],
			"faces": {
				"north": {"uv": [6.75, 12, 6.8125, 12.0625], "texture": "#0"},
				"east": {"uv": [8.5, 11.5, 8.75, 11.5625], "texture": "#0"},
				"south": {"uv": [12, 6.75, 12.0625, 6.8125], "texture": "#0"},
				"west": {"uv": [11.5, 8.5, 11.75, 8.5625], "texture": "#0"},
				"up": {"uv": [8.8125, 11.75, 8.75, 11.5], "texture": "#0"},
				"down": {"uv": [11.5625, 8.75, 11.5, 9], "texture": "#0"}
			}
		},
		{
			"from": [8, 6, 2],
			"to": [8.25, 6.25, 3],
			"faces": {
				"north": {"uv": [6.5, 12, 6.5625, 12.0625], "texture": "#0"},
				"east": {"uv": [8, 11.5, 8.25, 11.5625], "texture": "#0"},
				"south": {"uv": [12, 6.5, 12.0625, 6.5625], "texture": "#0"},
				"west": {"uv": [11.5, 8, 11.75, 8.0625], "texture": "#0"},
				"up": {"uv": [8.3125, 11.75, 8.25, 11.5], "texture": "#0"},
				"down": {"uv": [11.5625, 8.25, 11.5, 8.5], "texture": "#0"}
			}
		},
		{
			"from": [8, 6, 4],
			"to": [8.25, 6.25, 5],
			"faces": {
				"north": {"uv": [6.25, 12, 6.3125, 12.0625], "texture": "#0"},
				"east": {"uv": [7.5, 11.5, 7.75, 11.5625], "texture": "#0"},
				"south": {"uv": [12, 6.25, 12.0625, 6.3125], "texture": "#0"},
				"west": {"uv": [11.5, 7.5, 11.75, 7.5625], "texture": "#0"},
				"up": {"uv": [7.8125, 11.75, 7.75, 11.5], "texture": "#0"},
				"down": {"uv": [11.5625, 7.75, 11.5, 8], "texture": "#0"}
			}
		},
		{
			"from": [8, 6, 6],
			"to": [8.25, 6.25, 7],
			"faces": {
				"north": {"uv": [6, 12, 6.0625, 12.0625], "texture": "#0"},
				"east": {"uv": [7, 11.5, 7.25, 11.5625], "texture": "#0"},
				"south": {"uv": [12, 6, 12.0625, 6.0625], "texture": "#0"},
				"west": {"uv": [11.5, 7, 11.75, 7.0625], "texture": "#0"},
				"up": {"uv": [7.3125, 11.75, 7.25, 11.5], "texture": "#0"},
				"down": {"uv": [11.5625, 7.25, 11.5, 7.5], "texture": "#0"}
			}
		},
		{
			"from": [5.75, 7.75, 0],
			"to": [6, 8, 1],
			"faces": {
				"north": {"uv": [11.75, 8.5, 11.8125, 8.5625], "texture": "#0"},
				"east": {"uv": [0.5, 11.25, 0.75, 11.3125], "texture": "#0"},
				"south": {"uv": [8.75, 11.75, 8.8125, 11.8125], "texture": "#0"},
				"west": {"uv": [11.25, 0.5, 11.5, 0.5625], "texture": "#0"},
				"up": {"uv": [0.8125, 11.5, 0.75, 11.25], "texture": "#0"},
				"down": {"uv": [11.3125, 0.75, 11.25, 1], "texture": "#0"}
			}
		},
		{
			"from": [5.75, 7.75, 2],
			"to": [6, 8, 3],
			"faces": {
				"north": {"uv": [11.75, 8.75, 11.8125, 8.8125], "texture": "#0"},
				"east": {"uv": [11.25, 1.5, 11.5, 1.5625], "texture": "#0"},
				"south": {"uv": [9, 11.75, 9.0625, 11.8125], "texture": "#0"},
				"west": {"uv": [11.25, 1.75, 11.5, 1.8125], "texture": "#0"},
				"up": {"uv": [2.3125, 11.5, 2.25, 11.25], "texture": "#0"},
				"down": {"uv": [2.5625, 11.25, 2.5, 11.5], "texture": "#0"}
			}
		},
		{
			"from": [5.75, 7.75, 4],
			"to": [6, 8, 5],
			"faces": {
				"north": {"uv": [11.75, 9, 11.8125, 9.0625], "texture": "#0"},
				"east": {"uv": [11.25, 2.5, 11.5, 2.5625], "texture": "#0"},
				"south": {"uv": [9.25, 11.75, 9.3125, 11.8125], "texture": "#0"},
				"west": {"uv": [2.75, 11.25, 3, 11.3125], "texture": "#0"},
				"up": {"uv": [11.3125, 3, 11.25, 2.75], "texture": "#0"},
				"down": {"uv": [3.0625, 11.25, 3, 11.5], "texture": "#0"}
			}
		},
		{
			"from": [5.75, 7.75, 6],
			"to": [6, 8, 7],
			"faces": {
				"north": {"uv": [11.75, 9.25, 11.8125, 9.3125], "texture": "#0"},
				"east": {"uv": [11.25, 3, 11.5, 3.0625], "texture": "#0"},
				"south": {"uv": [9.5, 11.75, 9.5625, 11.8125], "texture": "#0"},
				"west": {"uv": [3.25, 11.25, 3.5, 11.3125], "texture": "#0"},
				"up": {"uv": [11.3125, 3.5, 11.25, 3.25], "texture": "#0"},
				"down": {"uv": [3.5625, 11.25, 3.5, 11.5], "texture": "#0"}
			}
		},
		{
			"from": [7.75, 9, 0],
			"to": [8, 9.25, 1],
			"faces": {
				"north": {"uv": [11.75, 10.5, 11.8125, 10.5625], "texture": "#0"},
				"east": {"uv": [11.25, 5.25, 11.5, 5.3125], "texture": "#0"},
				"south": {"uv": [10.75, 11.75, 10.8125, 11.8125], "texture": "#0"},
				"west": {"uv": [11.25, 5.5, 11.5, 5.5625], "texture": "#0"},
				"up": {"uv": [11.3125, 6, 11.25, 5.75], "texture": "#0"},
				"down": {"uv": [11.3125, 6, 11.25, 6.25], "texture": "#0"}
			}
		},
		{
			"from": [7.75, 9, 2],
			"to": [8, 9.25, 3],
			"faces": {
				"north": {"uv": [11.75, 10.25, 11.8125, 10.3125], "texture": "#0"},
				"east": {"uv": [11.25, 4.75, 11.5, 4.8125], "texture": "#0"},
				"south": {"uv": [10.5, 11.75, 10.5625, 11.8125], "texture": "#0"},
				"west": {"uv": [5, 11.25, 5.25, 11.3125], "texture": "#0"},
				"up": {"uv": [11.3125, 5.25, 11.25, 5], "texture": "#0"},
				"down": {"uv": [5.3125, 11.25, 5.25, 11.5], "texture": "#0"}
			}
		},
		{
			"from": [7.75, 9, 4],
			"to": [8, 9.25, 5],
			"faces": {
				"north": {"uv": [11.75, 10, 11.8125, 10.0625], "texture": "#0"},
				"east": {"uv": [11.25, 4.25, 11.5, 4.3125], "texture": "#0"},
				"south": {"uv": [10.25, 11.75, 10.3125, 11.8125], "texture": "#0"},
				"west": {"uv": [4.5, 11.25, 4.75, 11.3125], "texture": "#0"},
				"up": {"uv": [11.3125, 4.75, 11.25, 4.5], "texture": "#0"},
				"down": {"uv": [4.8125, 11.25, 4.75, 11.5], "texture": "#0"}
			}
		},
		{
			"from": [7.75, 9, 6],
			"to": [8, 9.25, 7],
			"faces": {
				"north": {"uv": [11.75, 9.75, 11.8125, 9.8125], "texture": "#0"},
				"east": {"uv": [3.75, 11.25, 4, 11.3125], "texture": "#0"},
				"south": {"uv": [10, 11.75, 10.0625, 11.8125], "texture": "#0"},
				"west": {"uv": [4, 11.25, 4.25, 11.3125], "texture": "#0"},
				"up": {"uv": [11.3125, 4.25, 11.25, 4], "texture": "#0"},
				"down": {"uv": [4.3125, 11.25, 4.25, 11.5], "texture": "#0"}
			}
		},
		{
			"from": [9, 7, 0],
			"to": [9.25, 7.25, 1],
			"faces": {
				"north": {"uv": [4.25, 12, 4.3125, 12.0625], "texture": "#0"},
				"east": {"uv": [4.5, 11.5, 4.75, 11.5625], "texture": "#0"},
				"south": {"uv": [12, 4.25, 12.0625, 4.3125], "texture": "#0"},
				"west": {"uv": [11.5, 4.5, 11.75, 4.5625], "texture": "#0"},
				"up": {"uv": [4.8125, 11.75, 4.75, 11.5], "texture": "#0"},
				"down": {"uv": [11.5625, 4.75, 11.5, 5], "texture": "#0"}
			}
		},
		{
			"from": [9, 7, 2],
			"to": [9.25, 7.25, 3],
			"faces": {
				"north": {"uv": [4, 12, 4.0625, 12.0625], "texture": "#0"},
				"east": {"uv": [4, 11.5, 4.25, 11.5625], "texture": "#0"},
				"south": {"uv": [12, 4, 12.0625, 4.0625], "texture": "#0"},
				"west": {"uv": [11.5, 4, 11.75, 4.0625], "texture": "#0"},
				"up": {"uv": [4.3125, 11.75, 4.25, 11.5], "texture": "#0"},
				"down": {"uv": [11.5625, 4.25, 11.5, 4.5], "texture": "#0"}
			}
		},
		{
			"from": [9, 7, 4],
			"to": [9.25, 7.25, 5],
			"faces": {
				"north": {"uv": [3.75, 12, 3.8125, 12.0625], "texture": "#0"},
				"east": {"uv": [3.5, 11.5, 3.75, 11.5625], "texture": "#0"},
				"south": {"uv": [12, 3.75, 12.0625, 3.8125], "texture": "#0"},
				"west": {"uv": [11.5, 3.5, 11.75, 3.5625], "texture": "#0"},
				"up": {"uv": [3.8125, 11.75, 3.75, 11.5], "texture": "#0"},
				"down": {"uv": [11.5625, 3.75, 11.5, 4], "texture": "#0"}
			}
		},
		{
			"from": [9, 7, 6],
			"to": [9.25, 7.25, 7],
			"faces": {
				"north": {"uv": [3.5, 12, 3.5625, 12.0625], "texture": "#0"},
				"east": {"uv": [3, 11.5, 3.25, 11.5625], "texture": "#0"},
				"south": {"uv": [12, 3.5, 12.0625, 3.5625], "texture": "#0"},
				"west": {"uv": [11.5, 3, 11.75, 3.0625], "texture": "#0"},
				"up": {"uv": [3.3125, 11.75, 3.25, 11.5], "texture": "#0"},
				"down": {"uv": [11.5625, 3.25, 11.5, 3.5], "texture": "#0"}
			}
		},
		{
			"from": [7.25, 9, 6],
			"to": [7.5, 9.25, 7],
			"faces": {
				"north": {"uv": [2.25, 12, 2.3125, 12.0625], "texture": "#0"},
				"east": {"uv": [0.5, 11.5, 0.75, 11.5625], "texture": "#0"},
				"south": {"uv": [12, 2.25, 12.0625, 2.3125], "texture": "#0"},
				"west": {"uv": [11.5, 0.5, 11.75, 0.5625], "texture": "#0"},
				"up": {"uv": [0.8125, 11.75, 0.75, 11.5], "texture": "#0"},
				"down": {"uv": [11.5625, 0.75, 11.5, 1], "texture": "#0"}
			}
		},
		{
			"from": [7.25, 9, 4],
			"to": [7.5, 9.25, 5],
			"faces": {
				"north": {"uv": [2, 12, 2.0625, 12.0625], "texture": "#0"},
				"east": {"uv": [0, 11.5, 0.25, 11.5625], "texture": "#0"},
				"south": {"uv": [12, 2, 12.0625, 2.0625], "texture": "#0"},
				"west": {"uv": [11.5, 0, 11.75, 0.0625], "texture": "#0"},
				"up": {"uv": [0.3125, 11.75, 0.25, 11.5], "texture": "#0"},
				"down": {"uv": [11.5625, 0.25, 11.5, 0.5], "texture": "#0"}
			}
		},
		{
			"from": [7.25, 9, 2],
			"to": [7.5, 9.25, 3],
			"faces": {
				"north": {"uv": [1.75, 12, 1.8125, 12.0625], "texture": "#0"},
				"east": {"uv": [11.25, 10.75, 11.5, 10.8125], "texture": "#0"},
				"south": {"uv": [12, 1.75, 12.0625, 1.8125], "texture": "#0"},
				"west": {"uv": [11, 11.25, 11.25, 11.3125], "texture": "#0"},
				"up": {"uv": [11.3125, 11.25, 11.25, 11], "texture": "#0"},
				"down": {"uv": [11.3125, 11.25, 11.25, 11.5], "texture": "#0"}
			}
		},
		{
			"from": [7.25, 9, 0],
			"to": [7.5, 9.25, 1],
			"faces": {
				"north": {"uv": [1.5, 12, 1.5625, 12.0625], "texture": "#0"},
				"east": {"uv": [11.25, 10.25, 11.5, 10.3125], "texture": "#0"},
				"south": {"uv": [12, 1.5, 12.0625, 1.5625], "texture": "#0"},
				"west": {"uv": [10.5, 11.25, 10.75, 11.3125], "texture": "#0"},
				"up": {"uv": [11.3125, 10.75, 11.25, 10.5], "texture": "#0"},
				"down": {"uv": [10.8125, 11.25, 10.75, 11.5], "texture": "#0"}
			}
		},
		{
			"from": [9, 7.5, 6],
			"to": [9.25, 7.75, 7],
			"faces": {
				"north": {"uv": [3.25, 12, 3.3125, 12.0625], "texture": "#0"},
				"east": {"uv": [2.5, 11.5, 2.75, 11.5625], "texture": "#0"},
				"south": {"uv": [12, 3.25, 12.0625, 3.3125], "texture": "#0"},
				"west": {"uv": [11.5, 2.5, 11.75, 2.5625], "texture": "#0"},
				"up": {"uv": [2.8125, 11.75, 2.75, 11.5], "texture": "#0"},
				"down": {"uv": [11.5625, 2.75, 11.5, 3], "texture": "#0"}
			}
		},
		{
			"from": [9, 7.5, 4],
			"to": [9.25, 7.75, 5],
			"faces": {
				"north": {"uv": [3, 12, 3.0625, 12.0625], "texture": "#0"},
				"east": {"uv": [2, 11.5, 2.25, 11.5625], "texture": "#0"},
				"south": {"uv": [12, 3, 12.0625, 3.0625], "texture": "#0"},
				"west": {"uv": [11.5, 2, 11.75, 2.0625], "texture": "#0"},
				"up": {"uv": [2.3125, 11.75, 2.25, 11.5], "texture": "#0"},
				"down": {"uv": [11.5625, 2.25, 11.5, 2.5], "texture": "#0"}
			}
		},
		{
			"from": [9, 7.5, 2],
			"to": [9.25, 7.75, 3],
			"faces": {
				"north": {"uv": [2.75, 12, 2.8125, 12.0625], "texture": "#0"},
				"east": {"uv": [1.5, 11.5, 1.75, 11.5625], "texture": "#0"},
				"south": {"uv": [12, 2.75, 12.0625, 2.8125], "texture": "#0"},
				"west": {"uv": [11.5, 1.5, 11.75, 1.5625], "texture": "#0"},
				"up": {"uv": [1.8125, 11.75, 1.75, 11.5], "texture": "#0"},
				"down": {"uv": [11.5625, 1.75, 11.5, 2], "texture": "#0"}
			}
		},
		{
			"from": [9, 7.5, 0],
			"to": [9.25, 7.75, 1],
			"faces": {
				"north": {"uv": [2.5, 12, 2.5625, 12.0625], "texture": "#0"},
				"east": {"uv": [1, 11.5, 1.25, 11.5625], "texture": "#0"},
				"south": {"uv": [12, 2.5, 12.0625, 2.5625], "texture": "#0"},
				"west": {"uv": [11.5, 1, 11.75, 1.0625], "texture": "#0"},
				"up": {"uv": [1.3125, 11.75, 1.25, 11.5], "texture": "#0"},
				"down": {"uv": [11.5625, 1.25, 11.5, 1.5], "texture": "#0"}
			}
		}
	],
	"display": {
		"thirdperson_righthand": {
			"translation": [0.5, 2, -2.5],
			"scale": [0.75, 0.75, 0.75]
		},
		"thirdperson_lefthand": {
			"translation": [-0.5, 2, -2.5],
			"scale": [0.75, 0.75, 0.75]
		},
		"firstperson_righthand": {
			"translation": [0, 3, 0]
		},
		"firstperson_lefthand": {
			"translation": [0, 3, 0]
		},
		"ground": {
			"translation": [0, 0.5, 0],
			"scale": [0.5, 0.5, 0.5]
		},
		"gui": {
			"rotation": [0, 90, 0],
			"translation": [-0.75, 0, 0],
			"scale": [0.7, 0.7, 0.7]
		},
		"head": {
			"translation": [0, 9.5, 0]
		},
		"fixed": {
			"rotation": [0, -90, 0],
			"translation": [0.75, 0, 0],
			"scale": [0.75, 0.75, 0.75]
		}
	},
	"groups": [
		{
			"name": "group",
			"origin": [0, 0, 0],
			"color": 0,
			"children": [0, 1, 2, 3, 4, 5, 6, 7, 8]
		},
		{
			"name": "group",
			"origin": [0, 0, 0],
			"color": 0,
			"children": [9, 10, 11, 12, 13, 14, 15, 16, 17]
		},
		{
			"name": "group",
			"origin": [0, 0, 0],
			"color": 0,
			"children": [18, 19, 20, 21, 22, 23, 24, 25, 26, 27, 28, 29, 30, 31, 32, 33, 34, 35, 36, 37, 38, 39, 40, 41]
		},
		{
			"name": "group",
			"origin": [8, 8, 8],
			"color": 0,
			"children": []
		}, 42, 43, 44, 45, 46, 47, 48, 49, 50, 51, 52, 53, 54, 55, 56, 57, 58, 59,
		{
			"name": "group",
			"origin": [0, 0, 0],
			"color": 0,
			"children": [60, 61, 62, 63]
		},
		{
			"name": "group",
			"origin": [0, 0, 0],
			"color": 0,
			"children": [64, 65, 66, 67, 68, 69, 70, 71, 72, 73, 74, 75, 76, 77, 78, 79]
		},
		{
			"name": "group",
			"origin": [0, 0, 0],
			"color": 0,
			"children": [80, 81, 82, 83]
		},
		{
			"name": "group",
			"origin": [0, 0, 0],
			"color": 0,
			"children": [84, 85, 86, 87, 88, 89, 90, 91, 92, 93, 94, 95, 96, 97, 98, 99]
		},
		{
			"name": "group",
			"origin": [0, 0, 0],
			"color": 0,
			"children": [100, 101, 102, 103, 104, 105, 106, 107, 108, 109, 110, 111, 112, 113, 114, 115, 116, 117, 118, 119]
		}
	]
}